{
    "properties": [], 
    "externalReferences": [], 
    "innerClasses": [], 
    "interfaces": [], 
    "constructors": [
        {
            "modifiers": [
                "public"
            ], 
            "name": "SurveyTemplateExtensionHelper", 
            "parameters": [], 
            "references": [], 
            "location": {
                "column": 12, 
                "line": 5
            }, 
            "type": null, 
            "annotations": []
        }
    ], 
    "namespace": null, 
    "name": "SurveyTemplateExtensionHelper", 
    "tableDeclaration": {
        "modifiers": [
            "public", 
            "with sharing"
        ], 
        "name": "SurveyTemplateExtensionHelper", 
        "references": [], 
        "location": {
            "column": 27, 
            "line": 4
        }, 
        "type": "SurveyTemplateExtensionHelper", 
        "annotations": []
    }, 
    "parentClass": "", 
    "key": "01p58000001sNvYAAU", 
    "variables": [
        {
            "modifiers": [], 
            "name": "redirectPage", 
            "references": [], 
            "location": {
                "column": 23, 
                "line": 9
            }, 
            "type": "PageReference", 
            "annotations": []
        }, 
        {
            "modifiers": [], 
            "name": "message", 
            "references": [], 
            "location": {
                "column": 40, 
                "line": 14
            }, 
            "type": "String", 
            "annotations": []
        }
    ], 
    "id": "01p58000001sNvYAAU", 
    "methods": [
        {
            "modifiers": [
                "static", 
                "public"
            ], 
            "name": "cancel", 
            "parameters": [], 
            "references": [], 
            "location": {
                "column": 33, 
                "line": 8
            }, 
            "returnType": "PageReference", 
            "type": null, 
            "annotations": []
        }, 
        {
            "modifiers": [
                "static", 
                "public"
            ], 
            "name": "addError", 
            "parameters": [
                {
                    "type": "String", 
                    "name": "message"
                }
            ], 
            "references": [], 
            "location": {
                "column": 24, 
                "line": 14
            }, 
            "returnType": "void", 
            "type": null, 
            "annotations": []
        }
    ]
}