{
    "properties": [], 
    "externalReferences": [], 
    "innerClasses": [], 
    "interfaces": [], 
    "constructors": [], 
    "namespace": null, 
    "name": "SurveyTemplateTriggerTest", 
    "tableDeclaration": {
        "modifiers": [
            "private", 
            "testMethod"
        ], 
        "name": "SurveyTemplateTriggerTest", 
        "references": [], 
        "location": {
            "column": 15, 
            "line": 6
        }, 
        "type": "SurveyTemplateTriggerTest", 
        "annotations": [
            {
                "name": "IsTest"
            }
        ]
    }, 
    "parentClass": "", 
    "key": "01p58000005JFSQAA4", 
    "variables": [
        {
            "modifiers": [], 
            "name": "template", 
            "references": [], 
            "location": {
                "column": 27, 
                "line": 10
            }, 
            "type": "SurveyTemplate__c", 
            "annotations": []
        }, 
        {
            "modifiers": [], 
            "name": "template", 
            "references": [], 
            "location": {
                "column": 27, 
                "line": 17
            }, 
            "type": "SurveyTemplate__c", 
            "annotations": []
        }, 
        {
            "modifiers": [], 
            "name": "template", 
            "references": [], 
            "location": {
                "column": 27, 
                "line": 24
            }, 
            "type": "SurveyTemplate__c", 
            "annotations": []
        }
    ], 
    "id": "01p58000005JFSQAA4", 
    "methods": [
        {
            "modifiers": [
                "private", 
                "static", 
                "testMethod"
            ], 
            "name": "shouldSetApiNameSpacesToUnderline", 
            "parameters": [], 
            "references": [], 
            "location": {
                "column": 25, 
                "line": 9
            }, 
            "returnType": "void", 
            "type": null, 
            "annotations": [
                {
                    "name": "IsTest"
                }
            ]
        }, 
        {
            "modifiers": [
                "private", 
                "static", 
                "testMethod"
            ], 
            "name": "shouldSetApiNameCharactersToLowerCase", 
            "parameters": [], 
            "references": [], 
            "location": {
                "column": 25, 
                "line": 16
            }, 
            "returnType": "void", 
            "type": null, 
            "annotations": [
                {
                    "name": "IsTest"
                }
            ]
        }, 
        {
            "modifiers": [
                "private", 
                "static", 
                "testMethod"
            ], 
            "name": "shouldDeleteApiNamesSpecialCharacters", 
            "parameters": [], 
            "references": [], 
            "location": {
                "column": 25, 
                "line": 23
            }, 
            "returnType": "void", 
            "type": null, 
            "annotations": [
                {
                    "name": "IsTest"
                }
            ]
        }
    ]
}