{
    "properties": [], 
    "externalReferences": [], 
    "innerClasses": [], 
    "interfaces": [], 
    "constructors": [], 
    "namespace": null, 
    "name": "SurveyTemplateItemExtensionTest", 
    "tableDeclaration": {
        "modifiers": [
            "private", 
            "testMethod"
        ], 
        "name": "SurveyTemplateItemExtensionTest", 
        "references": [], 
        "location": {
            "column": 15, 
            "line": 2
        }, 
        "type": "SurveyTemplateItemExtensionTest", 
        "annotations": [
            {
                "name": "IsTest"
            }
        ]
    }, 
    "parentClass": "", 
    "key": "01p58000005J7CWAA0", 
    "variables": [
        {
            "modifiers": [], 
            "name": "template", 
            "references": [], 
            "location": {
                "column": 27, 
                "line": 6
            }, 
            "type": "SurveyTemplate__c", 
            "annotations": []
        }, 
        {
            "modifiers": [], 
            "name": "templateItem", 
            "references": [], 
            "location": {
                "column": 31, 
                "line": 7
            }, 
            "type": "SurveyTemplateItem__c", 
            "annotations": []
        }, 
        {
            "modifiers": [], 
            "name": "stdCtrl", 
            "references": [], 
            "location": {
                "column": 38, 
                "line": 8
            }, 
            "type": "StandardController", 
            "annotations": []
        }, 
        {
            "modifiers": [], 
            "name": "ext", 
            "references": [], 
            "location": {
                "column": 38, 
                "line": 9
            }, 
            "type": "SurveyTemplateItemExtensions", 
            "annotations": []
        }, 
        {
            "modifiers": [], 
            "name": "template", 
            "references": [], 
            "location": {
                "column": 27, 
                "line": 18
            }, 
            "type": "SurveyTemplate__c", 
            "annotations": []
        }, 
        {
            "modifiers": [], 
            "name": "templateItem", 
            "references": [], 
            "location": {
                "column": 31, 
                "line": 19
            }, 
            "type": "SurveyTemplateItem__c", 
            "annotations": []
        }, 
        {
            "modifiers": [], 
            "name": "stdCtrl", 
            "references": [], 
            "location": {
                "column": 38, 
                "line": 20
            }, 
            "type": "StandardController", 
            "annotations": []
        }, 
        {
            "modifiers": [], 
            "name": "ext", 
            "references": [], 
            "location": {
                "column": 38, 
                "line": 21
            }, 
            "type": "SurveyTemplateItemExtensions", 
            "annotations": []
        }, 
        {
            "modifiers": [], 
            "name": "template", 
            "references": [], 
            "location": {
                "column": 27, 
                "line": 31
            }, 
            "type": "SurveyTemplate__c", 
            "annotations": []
        }, 
        {
            "modifiers": [], 
            "name": "templateItem", 
            "references": [], 
            "location": {
                "column": 31, 
                "line": 32
            }, 
            "type": "SurveyTemplateItem__c", 
            "annotations": []
        }, 
        {
            "modifiers": [], 
            "name": "stdCtrl", 
            "references": [], 
            "location": {
                "column": 38, 
                "line": 33
            }, 
            "type": "StandardController", 
            "annotations": []
        }, 
        {
            "modifiers": [], 
            "name": "ext", 
            "references": [], 
            "location": {
                "column": 38, 
                "line": 34
            }, 
            "type": "SurveyTemplateItemExtensions", 
            "annotations": []
        }, 
        {
            "modifiers": [], 
            "name": "template", 
            "references": [], 
            "location": {
                "column": 27, 
                "line": 44
            }, 
            "type": "SurveyTemplate__c", 
            "annotations": []
        }, 
        {
            "modifiers": [], 
            "name": "templateItem", 
            "references": [], 
            "location": {
                "column": 31, 
                "line": 45
            }, 
            "type": "SurveyTemplateItem__c", 
            "annotations": []
        }, 
        {
            "modifiers": [], 
            "name": "stdCtrl", 
            "references": [], 
            "location": {
                "column": 38, 
                "line": 46
            }, 
            "type": "StandardController", 
            "annotations": []
        }, 
        {
            "modifiers": [], 
            "name": "ext", 
            "references": [], 
            "location": {
                "column": 38, 
                "line": 47
            }, 
            "type": "SurveyTemplateItemExtensions", 
            "annotations": []
        }, 
        {
            "modifiers": [], 
            "name": "template", 
            "references": [], 
            "location": {
                "column": 27, 
                "line": 58
            }, 
            "type": "SurveyTemplate__c", 
            "annotations": []
        }, 
        {
            "modifiers": [], 
            "name": "templateItem", 
            "references": [], 
            "location": {
                "column": 31, 
                "line": 59
            }, 
            "type": "SurveyTemplateItem__c", 
            "annotations": []
        }, 
        {
            "modifiers": [], 
            "name": "stdCtrl", 
            "references": [], 
            "location": {
                "column": 38, 
                "line": 60
            }, 
            "type": "StandardController", 
            "annotations": []
        }, 
        {
            "modifiers": [], 
            "name": "ext", 
            "references": [], 
            "location": {
                "column": 38, 
                "line": 61
            }, 
            "type": "SurveyTemplateItemExtensions", 
            "annotations": []
        }
    ], 
    "id": "01p58000005J7CWAA0", 
    "methods": [
        {
            "modifiers": [
                "private", 
                "static", 
                "testMethod"
            ], 
            "name": "shouldEditTemplateItemConfig", 
            "parameters": [], 
            "references": [], 
            "location": {
                "column": 25, 
                "line": 5
            }, 
            "returnType": "void", 
            "type": null, 
            "annotations": [
                {
                    "name": "IsTest"
                }
            ]
        }, 
        {
            "modifiers": [
                "private", 
                "static", 
                "testMethod"
            ], 
            "name": "shouldSaveTemplateItem", 
            "parameters": [], 
            "references": [], 
            "location": {
                "column": 25, 
                "line": 17
            }, 
            "returnType": "void", 
            "type": null, 
            "annotations": [
                {
                    "name": "IsTest"
                }
            ]
        }, 
        {
            "modifiers": [
                "private", 
                "static", 
                "testMethod"
            ], 
            "name": "shouldSaveAndNewTemplateItem", 
            "parameters": [], 
            "references": [], 
            "location": {
                "column": 25, 
                "line": 30
            }, 
            "returnType": "void", 
            "type": null, 
            "annotations": [
                {
                    "name": "IsTest"
                }
            ]
        }, 
        {
            "modifiers": [
                "private", 
                "static", 
                "testMethod"
            ], 
            "name": "shouldGetExceptionWhenSaveWithoutTemplate", 
            "parameters": [], 
            "references": [], 
            "location": {
                "column": 25, 
                "line": 43
            }, 
            "returnType": "void", 
            "type": null, 
            "annotations": [
                {
                    "name": "IsTest"
                }
            ]
        }, 
        {
            "modifiers": [
                "private", 
                "static", 
                "testMethod"
            ], 
            "name": "shouldGetExceptionWhenSaveNewWithoutTemplate", 
            "parameters": [], 
            "references": [], 
            "location": {
                "column": 25, 
                "line": 57
            }, 
            "returnType": "void", 
            "type": null, 
            "annotations": [
                {
                    "name": "IsTest"
                }
            ]
        }
    ]
}